---
http_interactions:
- request:
    method: get
    uri: "<GIDS_URL>/v0/institutions?name=illinois"
    body:
      encoding: US-ASCII
      string: ''
    headers:
      Accept:
      - application/json
      Content-Type:
      - application/json
      User-Agent:
      - Vets.gov Agent
      Accept-Encoding:
      - gzip;q=1.0,deflate;q=0.6,identity;q=0.3
  response:
    status:
      code: 200
      message: OK
    headers:
      Date:
      - Tue, 01 Aug 2017 16:42:13 GMT
      Content-Type:
      - application/json; charset=utf-8
      Connection:
      - keep-alive
      Cache-Control:
      - max-age=0, private, must-revalidate
      Etag:
      - W/"75754b78b15e80496d048dff25f208ed"
      Vary:
      - Origin
      X-Content-Type-Options:
      - nosniff
      - nosniff
      X-Frame-Options:
      - SAMEORIGIN
      - deny
      X-Request-Id:
      - 01e7a865-19fd-4bad-a294-ca9a0ab6d06c
      X-Runtime:
      - '0.444035'
      Content-Security-Policy:
      - 'script-src ''self'' ''unsafe-inline'' http://search.usa.gov http://www.google-analytics.com
        https://*.uservoice.com https://dap.digitalgov.gov https://maps.googleapis.com
        https://search.usa.gov https://standards.usa.gov https://www.google-analytics.com
        https://www.googletagmanager.com  ; default-src ''self''; style-src ''self''
        ''unsafe-inline'' http://search.usa.gov https://fonts.googleapis.com https://search.usa.gov;
        connect-src ''self'' http://localhost:4000 https://*.vets.gov https://api.mapbox.com
        ; child-src https://*.uservoice.com https://www.googletagmanager.com https://www.youtube.com;
        form-action ''self'' https://search.vets.gov; base-uri http://*.vets.gov ;
        img-src ''self'' data: https://*.gstatic.com https://api.mapbox.com https://d15vqlr7iz6e8x.cloudfront.net
        https://www.google-analytics.com; frame-ancestors ''none''; manifest-src ''none'';
        object-src ''self'' blob:; media-src ''none''; font-src ''self'' data: https://fonts.gstatic.com;
        block-all-mixed-content ;  report-uri /csp-report'
      Referrer-Policy:
      - no-referrer
      Strict-Transport-Security:
      - max-age=31536000; includeSubDomains; preload
      X-Xss-Protection:
      - 1; report=/csp-report
      Set-Cookie:
      - TS0108eb76=01c8917e48af0d7354b740f61d0af63701f0e5a8c75fed8cbd0da50f380c671f3e480a24426c137188d06656acdffff90ce1121633;
        Max-Age=900; Path=/
      Transfer-Encoding:
      - chunked
    body:
      encoding: ASCII-8BIT
      string: '{"data":[{"id":"1484132","type":"institutions","attributes":{"name":"AMEREN
        ILLINOIS-BELLEVILLE","facility_code":"30594913","type":"OJT","city":"BELLEVILLE","state":"IL","zip":"62221","country":"USA","highest_degree":null,"locale_type":null,"student_count":null,"caution_flag":null,"caution_flag_reason":null,"created_at":"2017-07-31T12:02:48.599Z","updated_at":"2017-07-31T12:02:48.599Z","bah":1224.0,"tuition_in_state":null,"tuition_out_of_state":null,"books":null,"student_veteran":null,"yr":false,"poe":false,"eight_keys":null},"links":{"self":"https://api.vets.gov/gids/v0/institutions/30594913"}},{"id":"1473379","type":"institutions","attributes":{"name":"AMEREN
        ILLINOIS-BLOOMINGTON","facility_code":"20603713","type":"OJT","city":"BLOOMINGTON","state":"IL","zip":"61707","country":"USA","highest_degree":null,"locale_type":null,"student_count":null,"caution_flag":null,"caution_flag_reason":null,"created_at":"2017-07-31T12:02:48.599Z","updated_at":"2017-07-31T12:02:48.599Z","bah":null,"tuition_in_state":null,"tuition_out_of_state":null,"books":null,"student_veteran":null,"yr":false,"poe":false,"eight_keys":null},"links":{"self":"https://api.vets.gov/gids/v0/institutions/20603713"}},{"id":"1484011","type":"institutions","attributes":{"name":"AMEREN
        ILLINOIS-DECATUR","facility_code":"30568513","type":"OJT","city":"DECATUR","state":"IL","zip":"62521","country":"USA","highest_degree":null,"locale_type":null,"student_count":null,"caution_flag":null,"caution_flag_reason":null,"created_at":"2017-07-31T12:02:48.599Z","updated_at":"2017-07-31T12:02:48.599Z","bah":1098.0,"tuition_in_state":null,"tuition_out_of_state":null,"books":null,"student_veteran":null,"yr":false,"poe":false,"eight_keys":null},"links":{"self":"https://api.vets.gov/gids/v0/institutions/30568513"}},{"id":"1484139","type":"institutions","attributes":{"name":"AMEREN
        ILLINOIS KEWANEE","facility_code":"30595613","type":"OJT","city":"KEWANEE","state":"IL","zip":"61443","country":"USA","highest_degree":null,"locale_type":null,"student_count":null,"caution_flag":null,"caution_flag_reason":null,"created_at":"2017-07-31T12:02:48.599Z","updated_at":"2017-07-31T12:02:48.599Z","bah":1197.0,"tuition_in_state":null,"tuition_out_of_state":null,"books":null,"student_veteran":null,"yr":false,"poe":false,"eight_keys":null},"links":{"self":"https://api.vets.gov/gids/v0/institutions/30595613"}},{"id":"1473370","type":"institutions","attributes":{"name":"AMEREN
        ILLINOIS-LASALLE","facility_code":"20603113","type":"OJT","city":"LASALLE","state":"IL","zip":"61301","country":"USA","highest_degree":null,"locale_type":null,"student_count":null,"caution_flag":null,"caution_flag_reason":null,"created_at":"2017-07-31T12:02:48.599Z","updated_at":"2017-07-31T12:02:48.599Z","bah":1218.0,"tuition_in_state":null,"tuition_out_of_state":null,"books":null,"student_veteran":null,"yr":false,"poe":false,"eight_keys":null},"links":{"self":"https://api.vets.gov/gids/v0/institutions/20603113"}},{"id":"1484126","type":"institutions","attributes":{"name":"AMEREN
        ILLINOIS-MARION","facility_code":"30594313","type":"OJT","city":"MARION","state":"IL","zip":"62959","country":"USA","highest_degree":null,"locale_type":null,"student_count":null,"caution_flag":null,"caution_flag_reason":null,"created_at":"2017-07-31T12:02:48.599Z","updated_at":"2017-07-31T12:02:48.599Z","bah":1236.0,"tuition_in_state":null,"tuition_out_of_state":null,"books":null,"student_veteran":null,"yr":false,"poe":false,"eight_keys":null},"links":{"self":"https://api.vets.gov/gids/v0/institutions/30594313"}},{"id":"1484133","type":"institutions","attributes":{"name":"AMEREN
        ILLINOIS-MARYVILLE","facility_code":"30595013","type":"OJT","city":"MARYVILLE","state":"IL","zip":"62062","country":"USA","highest_degree":null,"locale_type":null,"student_count":null,"caution_flag":null,"caution_flag_reason":null,"created_at":"2017-07-31T12:02:48.599Z","updated_at":"2017-07-31T12:02:48.599Z","bah":1395.0,"tuition_in_state":null,"tuition_out_of_state":null,"books":null,"student_veteran":null,"yr":false,"poe":false,"eight_keys":null},"links":{"self":"https://api.vets.gov/gids/v0/institutions/30595013"}},{"id":"1460011","type":"institutions","attributes":{"name":"AMEREN
        ILLINOIS-MATTOON","facility_code":"10721513","type":"OJT","city":"MATTOON","state":"IL","zip":"61938","country":"USA","highest_degree":null,"locale_type":null,"student_count":null,"caution_flag":null,"caution_flag_reason":null,"created_at":"2017-07-31T12:02:48.599Z","updated_at":"2017-07-31T12:02:48.599Z","bah":1158.0,"tuition_in_state":null,"tuition_out_of_state":null,"books":null,"student_veteran":null,"yr":false,"poe":false,"eight_keys":null},"links":{"self":"https://api.vets.gov/gids/v0/institutions/10721513"}},{"id":"1473383","type":"institutions","attributes":{"name":"AMEREN
        ILLINOIS-PEORIA","facility_code":"20604113","type":"OJT","city":"PEORIA","state":"IL","zip":"61615","country":"USA","highest_degree":null,"locale_type":null,"student_count":null,"caution_flag":null,"caution_flag_reason":null,"created_at":"2017-07-31T12:02:48.599Z","updated_at":"2017-07-31T12:02:48.599Z","bah":1203.0,"tuition_in_state":null,"tuition_out_of_state":null,"books":null,"student_veteran":null,"yr":false,"poe":false,"eight_keys":null},"links":{"self":"https://api.vets.gov/gids/v0/institutions/20604113"}},{"id":"1473321","type":"institutions","attributes":{"name":"AMEREN
        ILLINOIS-PERSIMMON","facility_code":"20596413","type":"OJT","city":"PEORIA","state":"IL","zip":"61602","country":"USA","highest_degree":null,"locale_type":null,"student_count":null,"caution_flag":null,"caution_flag_reason":null,"created_at":"2017-07-31T12:02:48.599Z","updated_at":"2017-07-31T12:02:48.599Z","bah":1203.0,"tuition_in_state":null,"tuition_out_of_state":null,"books":null,"student_veteran":null,"yr":false,"poe":false,"eight_keys":null},"links":{"self":"https://api.vets.gov/gids/v0/institutions/20596413"}}],"links":{"self":"https://api.vets.gov/gids/v0/institutions?name=illinois","first":"https://api.vets.gov/gids/v0/institutions?name=illinois\u0026page=1\u0026per_page=10","prev":null,"next":"https://api.vets.gov/gids/v0/institutions?name=illinois\u0026page=2\u0026per_page=10","last":"https://api.vets.gov/gids/v0/institutions?name=illinois\u0026page=22\u0026per_page=10"},"meta":{"version":{"number":42,"created_at":"2017-07-31T12:19:24.914Z","preview":false},"count":214,"facets":{"category":{"school":75,"employer":139},"type":{"correspondence":16,"flight":348,"foreign":1898,"for
        profit":6,"ojt":139,"private":17,"public":52},"state":{"ak":104,"al":339,"ar":429,"as":3,"az":467,"ca":1699,"co":595,"ct":1024,"dc":120,"de":126,"fl":1222,"fm":1,"ga":1889,"gu":14,"hi":167,"ia":657,"id":311,"il":1426,"in":978,"ks":267,"ky":744,"la":477,"ma":704,"md":409,"me":394,"mh":1,"mi":702,"mn":487,"mo":1415,"mp":2,"ms":184,"mt":308,"nc":803,"nd":132,"ne":197,"nh":330,"nj":954,"nm":244,"nv":105,"ny":1710,"oh":885,"ok":651,"or":299,"pa":1389,"pr":143,"pw":1,"ri":115,"sc":788,"sd":388,"tn":471,"tx":1611,"ut":331,"va":1123,"vi":6,"vt":158,"wa":577,"wi":1278,"wv":269,"wy":92},"country":[{"name":"USA","count":214}],"student_vet_group":{"true":null,"false":null},"yellow_ribbon_scholarship":{"true":null,"false":null},"principles_of_excellence":{"true":null,"false":null},"eight_keys_to_veteran_success":{"true":null,"false":null}}}}'
    http_version:
  recorded_at: Tue, 01 Aug 2017 16:42:13 GMT
recorded_with: VCR 3.0.3
