---
http_interactions:
- request:
    method: get
    uri: "<GIDS_URL>/v0/institutions?name=illinois"
    body:
      encoding: US-ASCII
      string: ''
    headers:
      Accept:
      - application/json
      Content-Type:
      - application/json
      User-Agent:
      - Vets.gov Agent
      Accept-Encoding:
      - gzip;q=1.0,deflate;q=0.6,identity;q=0.3
  response:
    status:
      code: 200
      message: OK
    headers:
      X-Frame-Options:
      - SAMEORIGIN
      X-Content-Type-Options:
      - nosniff
      Cache-Control:
      - no-cache, no-store, max-age=0, must-revalidate
      Pragma:
      - no-cache
      Expires:
      - 2018-10-08 18:40:10 UTC
      Content-Type:
      - application/json; charset=utf-8
      X-Request-Id:
      - 2cd4149e-500f-405c-996d-13e0fd00c0d7
      X-Runtime:
      - '0.683567'
      Vary:
      - Origin
      Transfer-Encoding:
      - chunked
    body:
      encoding: UTF-8
      string: '{"data":[{"id":"27064","type":"institutions","attributes":{"name":"AMEREN  ILLINOIS
        UNIVERSITY","facility_code":"30597213","type":"OJT","city":"PEORIA","state":"IL","zip":"61615","country":"USA","highest_degree":null,"locale_type":null,"student_count":null,"caution_flag":null,"caution_flag_reason":null,"created_at":"2019-10-08T17:42:14.000Z","updated_at":"2019-10-08T17:42:14.000Z","address_1":"8420
        N UNIVERSITY ST","address_2":null,"address_3":null,"physical_city":"PEORIA","physical_state":"IL","physical_country":"USA","online_only":false,"distance_learning":false,"dod_bah":1155,"physical_zip":"61615","bah":1224.0,"tuition_in_state":null,"tuition_out_of_state":null,"books":null,"student_veteran":null,"yr":false,"poe":false,"eight_keys":null,"stem_offered":false,"independent_study":false,"priority_enrollment":false,"school_closing":false,"closure109":null,"vet_tec_provider":false,"parent_facility_code_id":null,"campus_type":null,"preferred_provider":false},"links":{"self":"http://localhost:3000/v0/institutions/30597213"}},{"id":"17260","type":"institutions","attributes":{"name":"AMEREN
        ILLINOIS ALTON","facility_code":"20607713","type":"OJT","city":"ALTON","state":"IL","zip":"62002","country":"USA","highest_degree":null,"locale_type":null,"student_count":null,"caution_flag":null,"caution_flag_reason":null,"created_at":"2019-10-08T17:42:14.000Z","updated_at":"2019-10-08T17:42:14.000Z","address_1":"700
        OAKWOOD AVE","address_2":null,"address_3":null,"physical_city":"ALTON","physical_state":"IL","physical_country":"USA","online_only":false,"distance_learning":false,"dod_bah":1437,"physical_zip":"62002","bah":1506.0,"tuition_in_state":null,"tuition_out_of_state":null,"books":null,"student_veteran":null,"yr":false,"poe":false,"eight_keys":null,"stem_offered":false,"independent_study":false,"priority_enrollment":false,"school_closing":false,"closure109":null,"vet_tec_provider":false,"parent_facility_code_id":null,"campus_type":null,"preferred_provider":false},"links":{"self":"http://localhost:3000/v0/institutions/20607713"}},{"id":"27063","type":"institutions","attributes":{"name":"AMEREN
        ILLINOIS CHAMPAIGN","facility_code":"30597113","type":"OJT","city":"CHAMPAIGN","state":"IL","zip":"61822","country":"USA","highest_degree":null,"locale_type":null,"student_count":null,"caution_flag":null,"caution_flag_reason":null,"created_at":"2019-10-08T17:42:14.000Z","updated_at":"2019-10-08T17:42:14.000Z","address_1":"2916
        Farber","address_2":null,"address_3":null,"physical_city":"CHAMPAIGN","physical_state":"IL","physical_country":"USA","online_only":false,"distance_learning":false,"dod_bah":1023,"physical_zip":"61822","bah":1092.0,"tuition_in_state":null,"tuition_out_of_state":null,"books":null,"student_veteran":null,"yr":false,"poe":false,"eight_keys":null,"stem_offered":false,"independent_study":false,"priority_enrollment":false,"school_closing":false,"closure109":null,"vet_tec_provider":false,"parent_facility_code_id":null,"campus_type":null,"preferred_provider":false},"links":{"self":"http://localhost:3000/v0/institutions/30597113"}},{"id":"27068","type":"institutions","attributes":{"name":"AMEREN
        ILLINOIS LINCOLN","facility_code":"30597613","type":"OJT","city":"LINCOLN","state":"IL","zip":"62656","country":"USA","highest_degree":null,"locale_type":null,"student_count":null,"caution_flag":null,"caution_flag_reason":null,"created_at":"2019-10-08T17:42:14.000Z","updated_at":"2019-10-08T17:42:14.000Z","address_1":"400
        LIMIT ST","address_2":null,"address_3":null,"physical_city":"LINCOLN","physical_state":"IL","physical_country":"USA","online_only":false,"distance_learning":false,"dod_bah":1176,"physical_zip":"62656","bah":1245.0,"tuition_in_state":null,"tuition_out_of_state":null,"books":null,"student_veteran":null,"yr":false,"poe":false,"eight_keys":null,"stem_offered":false,"independent_study":false,"priority_enrollment":false,"school_closing":false,"closure109":null,"vet_tec_provider":false,"parent_facility_code_id":null,"campus_type":null,"preferred_provider":false},"links":{"self":"http://localhost:3000/v0/institutions/30597613"}},{"id":"17275","type":"institutions","attributes":{"name":"AMEREN
        ILLINOIS WASHINGTON","facility_code":"20608713","type":"OJT","city":"WASHINGTON","state":"IL","zip":"61571","country":"USA","highest_degree":null,"locale_type":null,"student_count":null,"caution_flag":null,"caution_flag_reason":null,"created_at":"2019-10-08T17:42:14.000Z","updated_at":"2019-10-08T17:42:14.000Z","address_1":"22852
        WASHINGTON ROAD","address_2":null,"address_3":null,"physical_city":"WASHINGTON","physical_state":"IL","physical_country":"USA","online_only":false,"distance_learning":false,"dod_bah":1155,"physical_zip":"61571","bah":1224.0,"tuition_in_state":null,"tuition_out_of_state":null,"books":null,"student_veteran":null,"yr":false,"poe":false,"eight_keys":null,"stem_offered":false,"independent_study":false,"priority_enrollment":false,"school_closing":false,"closure109":null,"vet_tec_provider":false,"parent_facility_code_id":null,"campus_type":null,"preferred_provider":false},"links":{"self":"http://localhost:3000/v0/institutions/20608713"}},{"id":"17232","type":"institutions","attributes":{"name":"AMEREN
        ILLINOIS-BLOOMINGTON","facility_code":"20603713","type":"OJT","city":"BLOOMINGTON","state":"IL","zip":"61707","country":"USA","highest_degree":null,"locale_type":null,"student_count":null,"caution_flag":null,"caution_flag_reason":null,"created_at":"2019-10-08T17:42:14.000Z","updated_at":"2019-10-08T17:42:14.000Z","address_1":"501
        E LAFAYETTE","address_2":null,"address_3":null,"physical_city":"BLOOMINGTON","physical_state":"IL","physical_country":"USA","online_only":false,"distance_learning":false,"dod_bah":null,"physical_zip":"61707","bah":null,"tuition_in_state":null,"tuition_out_of_state":null,"books":null,"student_veteran":null,"yr":false,"poe":false,"eight_keys":null,"stem_offered":false,"independent_study":false,"priority_enrollment":false,"school_closing":false,"closure109":null,"vet_tec_provider":false,"parent_facility_code_id":null,"campus_type":null,"preferred_provider":false},"links":{"self":"http://localhost:3000/v0/institutions/20603713"}},{"id":"26924","type":"institutions","attributes":{"name":"AMEREN
        ILLINOIS-DECATUR","facility_code":"30568513","type":"OJT","city":"DECATUR","state":"IL","zip":"62521","country":"USA","highest_degree":null,"locale_type":null,"student_count":null,"caution_flag":null,"caution_flag_reason":null,"created_at":"2019-10-08T17:42:14.000Z","updated_at":"2019-10-08T17:42:14.000Z","address_1":"271
        SO 27TH ST","address_2":null,"address_3":null,"physical_city":"DECATUR","physical_state":"IL","physical_country":"USA","online_only":false,"distance_learning":false,"dod_bah":1017,"physical_zip":"62521","bah":1086.0,"tuition_in_state":null,"tuition_out_of_state":null,"books":null,"student_veteran":null,"yr":false,"poe":false,"eight_keys":null,"stem_offered":false,"independent_study":false,"priority_enrollment":false,"school_closing":false,"closure109":null,"vet_tec_provider":false,"parent_facility_code_id":null,"campus_type":null,"preferred_provider":false},"links":{"self":"http://localhost:3000/v0/institutions/30568513"}},{"id":"17222","type":"institutions","attributes":{"name":"AMEREN
        ILLINOIS-LASALLE","facility_code":"20603113","type":"OJT","city":"LASALLE","state":"IL","zip":"61301","country":"USA","highest_degree":null,"locale_type":null,"student_count":null,"caution_flag":null,"caution_flag_reason":null,"created_at":"2019-10-08T17:42:14.000Z","updated_at":"2019-10-08T17:42:14.000Z","address_1":"340
        RACCUGLIA","address_2":null,"address_3":null,"physical_city":"LASALLE","physical_state":"IL","physical_country":"USA","online_only":false,"distance_learning":false,"dod_bah":1299,"physical_zip":"61301","bah":1368.0,"tuition_in_state":null,"tuition_out_of_state":null,"books":null,"student_veteran":null,"yr":false,"poe":false,"eight_keys":null,"stem_offered":false,"independent_study":false,"priority_enrollment":false,"school_closing":false,"closure109":null,"vet_tec_provider":false,"parent_facility_code_id":null,"campus_type":null,"preferred_provider":false},"links":{"self":"http://localhost:3000/v0/institutions/20603113"}},{"id":"37348","type":"institutions","attributes":{"name":"AMEREN
        ILLINOIS-MARION","facility_code":"30594313","type":"OJT","city":"MARION","state":"IL","zip":"62959","country":"USA","highest_degree":null,"locale_type":null,"student_count":null,"caution_flag":null,"caution_flag_reason":null,"created_at":"2019-10-08T17:42:14.000Z","updated_at":"2019-10-08T17:42:14.000Z","address_1":"1800
        W MAIN","address_2":null,"address_3":null,"physical_city":"MARION","physical_state":"IL","physical_country":"USA","online_only":false,"distance_learning":false,"dod_bah":1200,"physical_zip":"62959","bah":1269.0,"tuition_in_state":null,"tuition_out_of_state":null,"books":null,"student_veteran":null,"yr":false,"poe":false,"eight_keys":null,"stem_offered":false,"independent_study":false,"priority_enrollment":false,"school_closing":false,"closure109":null,"vet_tec_provider":false,"parent_facility_code_id":null,"campus_type":null,"preferred_provider":false},"links":{"self":"http://localhost:3000/v0/institutions/30594313"}},{"id":"27042","type":"institutions","attributes":{"name":"AMEREN
        ILLINOIS-MARYVILLE","facility_code":"30595013","type":"OJT","city":"MARYVILLE","state":"IL","zip":"62062","country":"USA","highest_degree":null,"locale_type":null,"student_count":null,"caution_flag":null,"caution_flag_reason":null,"created_at":"2019-10-08T17:42:14.000Z","updated_at":"2019-10-08T17:42:14.000Z","address_1":"2600
        N CENTER","address_2":"PO BOX 378","address_3":null,"physical_city":"MARYVILLE","physical_state":"IL","physical_country":"USA","online_only":false,"distance_learning":false,"dod_bah":1437,"physical_zip":"62062","bah":1506.0,"tuition_in_state":null,"tuition_out_of_state":null,"books":null,"student_veteran":null,"yr":false,"poe":false,"eight_keys":null,"stem_offered":false,"independent_study":false,"priority_enrollment":false,"school_closing":false,"closure109":null,"vet_tec_provider":false,"parent_facility_code_id":null,"campus_type":null,"preferred_provider":false},"links":{"self":"http://localhost:3000/v0/institutions/30595013"}}],"links":{"self":"http://localhost:3000/v0/institutions?name=illinois","first":"http://localhost:3000/v0/institutions?name=illinois\u0026page=1\u0026per_page=10","prev":null,"next":"http://localhost:3000/v0/institutions?name=illinois\u0026page=2\u0026per_page=10","last":"http://localhost:3000/v0/institutions?name=illinois\u0026page=22\u0026per_page=10"},"meta":{"version":{"number":1,"created_at":"2019-10-08T17:43:01.614Z","preview":false},"count":215,"facets":{"category":{"school":64,"employer":151},"type":{"flight":1,"for
        profit":3,"ojt":151,"private":15,"public":45},"state":{"ca":3,"ct":1,"de":1,"fl":3,"ga":1,"il":197,"nc":2,"nj":1,"pa":1,"sc":1,"tn":1,"va":2,"wa":1},"country":[{"name":"USA","count":215}],"student_vet_group":{"true":null,"false":null},"yellow_ribbon_scholarship":{"true":null,"false":null},"principles_of_excellence":{"true":null,"false":null},"eight_keys_to_veteran_success":{"true":null,"false":null},"stem_offered":{"true":null,"false":null},"independent_study":{"true":null,"false":null},"online_only":{"true":null,"false":null},"distance_learning":{"true":null,"false":null},"priority_enrollment":{"true":null,"false":null}}}}'
    http_version: 
  recorded_at: Tue, 08 Oct 2019 18:40:11 GMT
recorded_with: VCR 3.0.3
